<?xml version="1.0" encoding="UTF-8" standalone="no"?>
<svg
   xmlns:dc="http://purl.org/dc/elements/1.1/"
   xmlns:cc="http://creativecommons.org/ns#"
   xmlns:rdf="http://www.w3.org/1999/02/22-rdf-syntax-ns#"
   xmlns:svg="http://www.w3.org/2000/svg"
   xmlns="http://www.w3.org/2000/svg"
   xmlns:sodipodi="http://sodipodi.sourceforge.net/DTD/sodipodi-0.dtd"
   xmlns:inkscape="http://www.inkscape.org/namespaces/inkscape"
   viewBox="0 0 224.47626 313.06125"
   height="313.06125"
   width="224.47626"
   xml:space="preserve"
   version="1.1"
   id="svg2"
   inkscape:version="0.91 r13725"
   sodipodi:docname="3.svg"><sodipodi:namedview
     pagecolor="#ffffff"
     bordercolor="#666666"
     borderopacity="1"
     objecttolerance="10"
     gridtolerance="10"
     guidetolerance="10"
     inkscape:pageopacity="0"
     inkscape:pageshadow="2"
     inkscape:window-width="1920"
     inkscape:window-height="1011"
     id="namedview4272"
     showgrid="false"
     fit-margin-top="0"
     fit-margin-left="0"
     fit-margin-right="0"
     fit-margin-bottom="0"
     inkscape:zoom="1"
     inkscape:cx="112.23813"
     inkscape:cy="156.53062"
     inkscape:window-x="0"
     inkscape:window-y="0"
     inkscape:window-maximized="1"
     inkscape:current-layer="svg2" /><metadata
     id="metadata8"><rdf:RDF><cc:Work
         rdf:about=""><dc:format>image/svg+xml</dc:format><dc:type
           rdf:resource="http://purl.org/dc/dcmitype/StillImage" /><dc:title></dc:title></cc:Work></rdf:RDF></metadata><defs
     id="defs6" /><path
     id="path44"
     style="fill:#f7f7f5;fill-opacity:1;fill-rule:nonzero;stroke:none"
     d="m 223.85125,294.72 c 0,9.78375 -7.9325,17.71625 -17.7175,17.71625 l -187.7925,0 C 8.5575,312.43625 0.625,304.50375 0.625,294.72 l 0,-276.37875 C 0.625,8.5575 8.5575,0.625 18.34125,0.625 l 187.7925,0 c 9.785,0 17.7175,7.9325 17.7175,17.71625 l 0,276.37875"
     inkscape:connector-curvature="0" /><path
     id="path46"
     style="fill:none;stroke:#231f20;stroke-width:1.25;stroke-linecap:butt;stroke-linejoin:miter;stroke-miterlimit:4;stroke-dasharray:none;stroke-opacity:1"
     d="m 223.85125,294.72 c 0,9.78375 -7.9325,17.71625 -17.7175,17.71625 l -187.7925,0 C 8.5575,312.43625 0.625,304.50375 0.625,294.72 l 0,-276.37875 C 0.625,8.5575 8.5575,0.625 18.34125,0.625 l 187.7925,0 c 9.785,0 17.7175,7.9325 17.7175,17.71625 l 0,276.37875 z"
     inkscape:connector-curvature="0" /><path
     id="path48"
     style="fill:#e52c3f;fill-opacity:1;fill-rule:nonzero;stroke:none"
     d="M 16.585,53.77375 C 18.8175,58.1125 21.76625,61.66 25.42875,64.415 21.76625,67.17375 18.8175,70.7125 16.585,75.03375 14.33125,70.7125 11.375,67.17375 7.7125,64.415 11.375,61.66 14.33125,58.1125 16.585,53.77375 l 0,0"
     inkscape:connector-curvature="0" /><path
     id="path50"
     style="fill:#e52c3f;fill-opacity:1;fill-rule:nonzero;stroke:none"
     d="m 207.92,238.02625 c 2.2325,4.33625 5.18125,7.88375 8.84375,10.64125 -3.6625,2.7575 -6.61125,6.2975 -8.84375,10.61875 -2.2525,-4.32125 -5.21125,-7.86125 -8.8725,-10.61875 3.66125,-2.7575 6.62,-6.305 8.8725,-10.64125 l 0,0"
     inkscape:connector-curvature="0" /><path
     id="path52"
     style="fill:#e52c3f;fill-opacity:1;fill-rule:nonzero;stroke:none"
     d="m 112.26875,32.515 c 5.58375,10.84375 12.955,19.71125 22.1125,26.60375 -9.1575,6.89625 -16.52875,15.74375 -22.1125,26.545 C 106.6425,74.8625 99.25,66.015 90.09375,59.11875 99.25,52.22625 106.6425,43.35875 112.26875,32.515 l 0,0"
     inkscape:connector-curvature="0" /><path
     id="path54"
     style="fill:#e52c3f;fill-opacity:1;fill-rule:nonzero;stroke:none"
     d="m 112.26875,129.955 c 5.58375,10.85 12.955,19.72125 22.1125,26.59375 -9.1575,6.8925 -16.52875,15.75 -22.1125,26.555 -5.62625,-10.805 -13.02,-19.6625 -22.175,-26.555 9.155,-6.8725 16.54875,-15.74375 22.175,-26.59375 l 0,0"
     inkscape:connector-curvature="0" /><path
     id="path56"
     style="fill:#e52c3f;fill-opacity:1;fill-rule:nonzero;stroke:none"
     d="m 112.26875,227.39625 c 5.58375,10.84375 12.955,19.7125 22.1125,26.6025 -9.1575,6.89625 -16.52875,15.745 -22.1125,26.5475 -5.62625,-10.8025 -13.01875,-19.65125 -22.175,-26.5475 9.15625,-6.89 16.54875,-15.75875 22.175,-26.6025 l 0,0"
     inkscape:connector-curvature="0" /><path
     id="path58"
     style="fill:#e52c3f;fill-opacity:1;fill-rule:nonzero;stroke:none"
     d="m 17.89125,28.0775 7.34625,-6.56125 0.0237,0 0,-0.0225 0.008,-0.0063 -0.008,-0.0087 0,-3.1375 -16.9125,0.0012 0.009,2.265 0,2.82 2.59875,0 0,-1.9275 9.89125,0.01125 -9.71,8.995 1.39875,2.07375 c 1.05875,-0.9775 2.38875,-1.55625 3.84875,-1.5575 1.71125,0.0013 3.42875,0.8 4.5525,2.09875 1.12125,1.3025 1.81,3.08375 1.81125,5.06875 -0.001,1.98375 -0.69,3.765 -1.81125,5.06625 -1.12375,1.29875 -2.84125,2.0975 -4.5525,2.09875 -1.71375,-0.0012 -3.25125,-0.8 -4.375,-2.09875 -0.81125,-0.9425 -1.39625,-2.135 -1.65875,-3.47375 l -2.63875,0.545 c 0.8475,4.645 4.40875,8.13125 8.6725,8.13125 4.89625,0 9.0425,-4.5975 9.0425,-10.26875 0,-5.07875 -3.32625,-9.285 -7.53625,-10.1125"
     inkscape:connector-curvature="0" /><path
     id="path60"
     style="fill:#e52c3f;fill-opacity:1;fill-rule:nonzero;stroke:none"
     d="m 12.53625,32.58 -0.001,0 0.001,0"
     inkscape:connector-curvature="0" /><path
     id="path62"
     style="fill:#e52c3f;fill-opacity:1;fill-rule:nonzero;stroke:none"
     d="m 206.585,284.9825 -7.34625,6.56 -0.025,0 0,0.0225 -0.009,0.007 0.009,0.009 -0.001,3.13875 16.915,-0.002 -0.0113,-2.265 0,-2.82125 -2.5975,0 0,1.92875 -9.89125,-0.0113 9.71125,-8.995 -1.39875,-2.0725 c -1.06,0.97625 -2.38875,1.555 -3.84875,1.555 -1.71375,0 -3.43,-0.79875 -4.5525,-2.0975 -1.12125,-1.3025 -1.81125,-3.08375 -1.81125,-5.0675 0,-1.98375 0.69,-3.765 1.81125,-5.06625 1.1225,-1.3 2.83875,-2.09875 4.5525,-2.1 1.7125,0.001 3.25,0.8 4.37375,2.1 0.81125,0.94125 1.39625,2.13375 1.65875,3.4725 l 2.64,-0.54375 c -0.85,-4.64625 -4.40875,-8.13125 -8.6725,-8.1325 -4.89625,10e-4 -9.045,4.5975 -9.045,10.27 0,5.07875 3.3275,9.28375 7.53875,10.11125"
     inkscape:connector-curvature="0" /><path
     id="path64"
     style="fill:#e52c3f;fill-opacity:1;fill-rule:nonzero;stroke:none"
     d="m 211.94,280.48125 0,0 0,0 0,0 z"
     inkscape:connector-curvature="0" /></svg>