<?xml version="1.0" encoding="UTF-8" standalone="no"?>
<svg
   xmlns:dc="http://purl.org/dc/elements/1.1/"
   xmlns:cc="http://creativecommons.org/ns#"
   xmlns:rdf="http://www.w3.org/1999/02/22-rdf-syntax-ns#"
   xmlns:svg="http://www.w3.org/2000/svg"
   xmlns="http://www.w3.org/2000/svg"
   xmlns:sodipodi="http://sodipodi.sourceforge.net/DTD/sodipodi-0.dtd"
   xmlns:inkscape="http://www.inkscape.org/namespaces/inkscape"
   viewBox="0 0 224.47701 313.0625"
   height="313.0625"
   width="224.47701"
   xml:space="preserve"
   version="1.1"
   id="svg2"
   inkscape:version="0.91 r13725"
   sodipodi:docname="A.svg"><sodipodi:namedview
     pagecolor="#ffffff"
     bordercolor="#666666"
     borderopacity="1"
     objecttolerance="10"
     gridtolerance="10"
     guidetolerance="10"
     inkscape:pageopacity="0"
     inkscape:pageshadow="2"
     inkscape:window-width="1920"
     inkscape:window-height="1011"
     id="namedview4295"
     showgrid="false"
     fit-margin-top="0"
     fit-margin-left="0"
     fit-margin-right="0"
     fit-margin-bottom="0"
     inkscape:zoom="1"
     inkscape:cx="112.2385"
     inkscape:cy="156.53125"
     inkscape:window-x="0"
     inkscape:window-y="0"
     inkscape:window-maximized="1"
     inkscape:current-layer="svg2" /><metadata
     id="metadata8"><rdf:RDF><cc:Work
         rdf:about=""><dc:format>image/svg+xml</dc:format><dc:type
           rdf:resource="http://purl.org/dc/dcmitype/StillImage" /><dc:title></dc:title></cc:Work></rdf:RDF></metadata><defs
     id="defs6" /><path
     id="path14"
     style="fill:#f7f7f5;fill-opacity:1;fill-rule:nonzero;stroke:none"
     d="m 223.85201,294.72125 c 0,9.78375 -7.93,17.71625 -17.715,17.71625 l -187.794749,0 C 8.5571238,312.4375 0.625,304.505 0.625,294.72125 l 0,-276.37875 C 0.625,8.5575 8.5571237,0.625 18.342261,0.625 l 187.794749,0 c 9.785,0 17.715,7.9325 17.715,17.7175 l 0,276.37875"
     inkscape:connector-curvature="0" /><path
     id="path16"
     style="fill:none;stroke:#231f20;stroke-width:1.25;stroke-linecap:butt;stroke-linejoin:miter;stroke-miterlimit:4;stroke-dasharray:none;stroke-opacity:1"
     d="m 223.85201,294.72125 c 0,9.78375 -7.93,17.71625 -17.715,17.71625 l -187.794749,0 C 8.5571238,312.4375 0.625,304.505 0.625,294.72125 l 0,-276.37875 C 0.625,8.5575 8.5571237,0.625 18.342261,0.625 l 187.794749,0 c 9.785,0 17.715,7.9325 17.715,17.7175 l 0,276.37875 z"
     inkscape:connector-curvature="0" /><path
     id="path18"
     style="fill:#050301;fill-opacity:1;fill-rule:nonzero;stroke:none"
     d="m 16.568886,53.77625 c -2.328125,0 -4.22025,2.12875 -4.22025,4.7525 0,1.4975 0.6265,2.83125 1.585875,3.7075 0.322375,0.2975 0.183125,0.62 -0.144,0.4175 C 13.189886,62.29 12.514636,62.0575 11.782223,62.0575 c -2.2460867,0 -4.0698242,2.05375 -4.0698242,4.5825 0,2.5325 1.8237375,4.585 4.0698242,4.585 1.496538,0 2.809038,-0.91 3.513163,-2.27 0.06987,-0.135 0.122125,-0.315 0.21975,-0.315 0.13575,0 0.19775,0.2175 0.19775,0.6275 0,1.6425 -0.629875,3.56125 -1.564875,5.76875 0.40525,-0.095 1.6225,-0.33875 2.420875,-0.33875 0.79825,0 2.019,0.24375 2.420375,0.33875 -0.930125,-2.2075 -1.5625,-4.12625 -1.5625,-5.76875 0,-0.41 0.06,-0.6275 0.19525,-0.6275 0.09775,0 0.155375,0.18 0.21975,0.315 0.708,1.36 2.016625,2.27 3.517125,2.27 2.247125,0 4.069875,-2.0525 4.069875,-4.585 0,-2.52875 -1.82275,-4.5825 -4.069875,-4.5825 -0.7315,0 -1.411125,0.2325 -2.01075,0.59625 -0.328125,0.2025 -0.46725,-0.12 -0.145,-0.4175 0.962875,-0.87625 1.5855,-2.21 1.5855,-3.7075 0,-2.62375 -1.88825,-4.7525 -4.21975,-4.7525"
     inkscape:connector-curvature="0" /><path
     id="path20"
     style="fill:#050301;fill-opacity:1;fill-rule:nonzero;stroke:none"
     d="m 207.90951,259.2875 c 2.3275,0 4.22125,-2.13 4.22125,-4.75125 0,-1.50125 -0.62875,-2.83 -1.58375,-3.70875 -0.3275,-0.2975 -0.18625,-0.61875 0.145,-0.4175 0.59625,0.365 1.27625,0.595 2.00375,0.595 2.24625,0 4.07125,-2.0525 4.07125,-4.58375 0,-2.52875 -1.825,-4.5825 -4.07125,-4.5825 -1.495,0 -2.8075,0.91125 -3.51375,2.27125 -0.0687,0.1325 -0.125,0.31625 -0.22,0.31625 -0.135,0 -0.1975,-0.22 -0.1975,-0.63 0,-1.6425 0.6325,-3.56375 1.56875,-5.76875 -0.40375,0.095 -1.62875,0.33875 -2.42375,0.33875 -0.79625,0 -2.01875,-0.24375 -2.41875,-0.33875 0.93,2.205 1.56375,4.12625 1.56375,5.76875 0,0.41 -0.0637,0.63 -0.19875,0.63 -0.0937,0 -0.15125,-0.18375 -0.22,-0.31625 -0.70375,-1.36 -2.0175,-2.27125 -3.51375,-2.27125 -2.24625,0 -4.07125,2.05375 -4.07125,4.5825 0,2.53125 1.825,4.58375 4.07125,4.58375 0.7275,0 1.40875,-0.23 2.00375,-0.595 0.3325,-0.20125 0.47125,0.12 0.1525,0.4175 -0.9625,0.87875 -1.58875,2.2075 -1.58875,3.70875 0,2.62125 1.89125,4.75125 4.22,4.75125"
     inkscape:connector-curvature="0" /><path
     id="path22"
     style="fill:#050301;fill-opacity:1;fill-rule:nonzero;stroke:none"
     d="m 112.23876,129.95875 c -5.82375,0 -10.55025,5.32125 -10.55025,11.87625 0,3.75 1.5635,7.07625 3.96475,9.27 0.80912,0.7425 0.4615,1.54875 -0.36513,1.045 -1.49762,-0.91 -3.18949,-1.48875 -5.01812,-1.48875 -5.616749,0 -10.175749,5.13125 -10.175749,11.455 0,6.32625 4.559,11.45875 10.175749,11.45875 3.74612,0 7.0225,-2.2775 8.78512,-5.675 0.171,-0.33375 0.30763,-0.78875 0.55425,-0.78875 0.332,0 0.48825,0.545 0.48825,1.56875 0,4.11 -1.57712,8.9075 -3.90862,14.42625 1.00587,-0.24 4.06,-0.84875 6.04975,-0.84875 1.99612,0 5.04637,0.60875 6.05612,0.84875 -2.334,-5.51875 -3.9135,-10.31625 -3.9135,-14.42625 0,-1.02375 0.15963,-1.56875 0.49313,-1.56875 0.24512,0 0.38187,0.455 0.55025,0.78875 1.76512,3.3975 5.03812,5.675 8.78425,5.675 5.6205,0 10.1755,-5.1325 10.1755,-11.45875 0,-6.32375 -4.555,-11.455 -10.1755,-11.455 -1.82475,0 -3.51813,0.57875 -5.022,1.48875 -0.81888,0.50375 -1.17038,-0.3025 -0.35738,-1.045 2.39738,-2.19375 3.96088,-5.52 3.96088,-9.27 0,-6.555 -4.7265,-11.87625 -10.55175,-11.87625"
     inkscape:connector-curvature="0" /><path
     id="path24"
     style="fill:#000000;fill-opacity:1;fill-rule:nonzero;stroke:none"
     d="m 23.413136,45.58375 -5.083,-27.20875 -2.736875,-0.0325 0.0049,0.01875 -0.681125,-0.005 -5.0708247,27.2275 -2.1313375,0 -0.00343,2.8775 6.8124622,0 0.004,-2.8775 -1.965375,0 0.77975,-4.1675 6.577125,-0.01 0.780375,4.1775 -2.084,-0.0025 -0.0049,2.8775 6.813,0.0025 0.0034,-2.8775 -2.014125,0 z m -9.484875,-7.2925 2.709,-14.45125 2.698625,14.44375 -5.407625,0.0075"
     inkscape:connector-curvature="0" /><path
     id="path26"
     style="fill:#000000;fill-opacity:1;fill-rule:nonzero;stroke:none"
     d="m 201.06451,267.48 5.085,27.2075 2.735,0.0337 -0.004,-0.02 0.68125,0.005 5.06875,-27.22625 2.1325,-10e-4 0.004,-2.8775 -6.8125,0 -0.004,2.87875 1.965,0 -0.78,4.1675 -6.57625,0.01 -0.78125,-4.1775 2.08375,0.002 0.006,-2.87875 -6.81375,-0.002 -0.004,2.87875 2.01375,0 z m 9.485,7.2925 -2.70875,14.45125 -2.6975,-14.44375 5.40625,-0.007"
     inkscape:connector-curvature="0" /></svg>